…
- How many aisles are there, and which aisles are the most items ordered
  from?

In total, there are 134 aisles, with fresh vegetables and fresh fruits
holding the most items ordered by far.

``` r
instacart |> 
  count(aisle) |> 
  arrange(desc(n))
```

    ## # A tibble: 134 × 2
    ##    aisle                              n
    ##    <chr>                          <int>
    ##  1 fresh vegetables              150609
    ##  2 fresh fruits                  150473
    ##  3 packaged vegetables fruits     78493
    ##  4 yogurt                         55240
    ##  5 packaged cheese                41699
    ##  6 water seltzer sparkling water  36617
    ##  7 milk                           32644
    ##  8 chips pretzels                 31269
    ##  9 soy lactosefree                26240
    ## 10 bread                          23635
    ## # ℹ 124 more rows
…
| product_name     |     0 |     1 |     2 |     3 |     4 |     5 |     6 |
|:-----------------|------:|------:|------:|------:|------:|------:|------:|
| Coffee Ice Cream | 13.77 | 14.32 | 15.38 | 15.32 | 15.22 | 12.26 | 13.83 |
| Pink Lady Apples | 13.44 | 11.36 | 11.70 | 14.25 | 11.55 | 12.78 | 11.94 |

### Problem 2

``` r
library(p8105.datasets)
data("brfss_smart2010")

brfss_smart2010
```

    ## # A tibble: 134,203 × 23
    ##     Year Locationabbr Locationdesc     Class Topic Question Response Sample_Size
    ##    <int> <chr>        <chr>            <chr> <chr> <chr>    <chr>          <int>
    ##  1  2010 AL           AL - Jefferson … Heal… Over… How is … Excelle…          94
    ##  2  2010 AL           AL - Jefferson … Heal… Over… How is … Very go…         148
    ##  3  2010 AL           AL - Jefferson … Heal… Over… How is … Good             208
    ##  4  2010 AL           AL - Jefferson … Heal… Over… How is … Fair             107
    ##  5  2010 AL           AL - Jefferson … Heal… Over… How is … Poor              45
    ##  6  2010 AL           AL - Jefferson … Heal… Fair… Health … Good or…         450
    ##  7  2010 AL           AL - Jefferson … Heal… Fair… Health … Fair or…         152
    ##  8  2010 AL           AL - Jefferson … Heal… Heal… Do you … Yes              524
    ##  9  2010 AL           AL - Jefferson … Heal… Heal… Do you … No                77
    ## 10  2010 AL           AL - Jefferson … Heal… Unde… Adults … Yes              316
    ## # ℹ 134,193 more rows
    ## # ℹ 15 more variables: Data_value <dbl>, Confidence_limit_Low <dbl>,
    ## #   Confidence_limit_High <dbl>, Display_order <int>, Data_value_unit <chr>,
    ## #   Data_value_type <chr>, Data_Value_Footnote_Symbol <chr>,
    ## #   Data_Value_Footnote <chr>, DataSource <chr>, ClassId <chr>, TopicId <chr>,
    ## #   LocationID <chr>, QuestionID <chr>, RESPID <chr>, GeoLocation <chr>
…
``` r
brfss_smart2010 = brfss_smart2010 |> 
  as_tibble()|>
  janitor::clean_names()|>
  filter(topic == "Overall Health")|> 
  filter(response %in% c("Excellent", "Very good", "Good", "Fair", "Poor"))|>
  mutate(response = factor(response, levels = c("Excellent", "Very good", "Good", "Fair", "Poor")))

brfss_smart2010
```

    ## # A tibble: 10,625 × 23
    ##     year locationabbr locationdesc     class topic question response sample_size
    ##    <int> <chr>        <chr>            <chr> <chr> <chr>    <fct>          <int>
    ##  1  2010 AL           AL - Jefferson … Heal… Over… How is … Excelle…          94
    ##  2  2010 AL           AL - Jefferson … Heal… Over… How is … Very go…         148
    ##  3  2010 AL           AL - Jefferson … Heal… Over… How is … Good             208
    ##  4  2010 AL           AL - Jefferson … Heal… Over… How is … Fair             107
    ##  5  2010 AL           AL - Jefferson … Heal… Over… How is … Poor              45
    ##  6  2010 AL           AL - Mobile Cou… Heal… Over… How is … Excelle…          91
    ##  7  2010 AL           AL - Mobile Cou… Heal… Over… How is … Very go…         177
    ##  8  2010 AL           AL - Mobile Cou… Heal… Over… How is … Good             224
    ##  9  2010 AL           AL - Mobile Cou… Heal… Over… How is … Fair             120
    ## 10  2010 AL           AL - Mobile Cou… Heal… Over… How is … Poor              66
    ## # ℹ 10,615 more rows
    ## # ℹ 15 more variables: data_value <dbl>, confidence_limit_low <dbl>,
    ## #   confidence_limit_high <dbl>, display_order <int>, data_value_unit <chr>,
    ## #   data_value_type <chr>, data_value_footnote_symbol <chr>,
    ## #   data_value_footnote <chr>, data_source <chr>, class_id <chr>,
    ## #   topic_id <chr>, location_id <chr>, question_id <chr>, respid <chr>,
    ## #   geo_location <chr>
…
``` r
df = brfss_smart2010|>
  filter(response == "Excellent")|>
  group_by(year, locationabbr)|>
  summarize(data_value_mean=mean(data_value, na.rm = TRUE))
```

    ## `summarise()` has grouped output by 'year'. You can override using the
    ## `.groups` argument.

``` r
df
```

    ## # A tibble: 443 × 3
    ## # Groups:   year [9]
    ##     year locationabbr data_value_mean
    ##    <int> <chr>                  <dbl>
    ##  1  2002 AK                      27.9
    ##  2  2002 AL                      18.5
    ##  3  2002 AR                      24.1
    ##  4  2002 AZ                      24.1
    ##  5  2002 CA                      22.7
    ##  6  2002 CO                      23.1
    ##  7  2002 CT                      29.1
    ##  8  2002 DC                      29.3
    ##  9  2002 DE                      20.9
    ## 10  2002 FL                      25.7
    ## # ℹ 433 more rows
…
